HW4/Verilog/sim/transcript
# Compile of cordic.v was successful.
vsim work.qr_cordic_tb
# vsim work.qr_cordic_tb 
# Start time: 01:54:15 on May 22,2024
# Loading work.qr_cordic_tb
# Loading work.qr_cordic
# Loading work.GG
# Loading work.GG_one_iter
# Loading work.GR
# Loading work.GR_one_iter
# Loading work.MK
# Loading work.ROM
# Loading work.RAM
run -all
# -------------------------------------------------------
# 
# START!!! Simulation Start .....
# 
# -------------------------------------------------------
# 
# Input A matrix: 
#     -492     -272     -384     -316
#      340     -488     -208      420
#      408      448     -380      288
#      348      456      152      504
#      136      272     -284      508
#      300     -356      384     -460
#     -376      464      488     -276
#      328      488     -440      304
# 
# Output R matrix golden pattern: 
#     1008      222     -242      721
#        0     1160      -36      345
#        0        0      988     -412
#        0        0        0      663
#        0        0        0        0
#        0        0        0        0
#        0        0        0        0
#        0        0        0        0
# R matrix calculated result: 
#     1008      222     -242      721
#        0     1160      -36      345
#        0        0      988     -412
#        0        0        0      663
#        0        0        0        0
#        0        0        0        0
#        0        0        0        0
#        0        0        0        0
# 
# Output Q matrix golden pattern: 
#     -499      342      416      354     -141     -307     -386      344
#     -144     -502      315      334     -242      318      418      430
#      527      -21     -284      254       86      265     -701       27
#      199      486      274      369      100      354        7      761
#     -677      -19      233      639      258      468     -350      -98
#        0      662     -177     -268     -373     -266      -49       45
#        0        0      731      -48     -412     -356     -323      263
#        0        0        0      348      767     -499       68      305
# Q matrix calculated result: 
#        0        0        0        0        0        0        0        0
#        0        0        0        0        0        0        0        0
#        0        0        0        0        0        0        0        0
#        0        0        0        0        0        0        0        0
#        0        0        0        0        0        0        0        0
#        0        0        0        0        0        0        0        0
#        0        0        0        0        0        0        0        0
#        0        0        0        0        0        0        0        0
# 
#  
# -------------------------------------------------------
# 
# --------------------- S U M M A R Y -------------------
# 
# *****************************************************************************
# ** PASS!!!  All data are correct in R matrix!                              **
# ** FAIL!!!  There are    58 error in Q matrix!                             **
# *****************************************************************************
# ** Note: $stop    : C:/Users/p8101/Desktop/school/Univ/senior(II)/VLSIDSP/2024/HW/HW4/Verilog/qr_cordic_tb.v(246)
#    Time: 3475 ns  Iteration: 0  Instance: /qr_cordic_tb
# Break in Module qr_cordic_tb at C:/Users/p8101/Desktop/school/Univ/senior(II)/VLSIDSP/2024/HW/HW4/Verilog/qr_cordic_tb.v line 246
# Compile of qr_cordic_tb.v was successful.
restart
# ** Note: (vsim-12125) Error and warning message counts have been reset to '0' because of 'restart'.
# Loading work.qr_cordic_tb
# Loading work.ROM
# Loading work.RAM
# Compile of cordic.v was successful.
restart
# ** Note: (vsim-12125) Error and warning message counts have been reset to '0' because of 'restart'.
# Loading work.qr_cordic
run -all
# GetModuleFileName: 找不到指定的模組。
# 
# 
# -------------------------------------------------------
# 
# START!!! Simulation Start .....
# 
# -------------------------------------------------------
# 
# Input A matrix: 
#     -492     -272     -384     -316
#      340     -488     -208      420
#      408      448     -380      288
#      348      456      152      504
#      136      272     -284      508
#      300     -356      384     -460
#     -376      464      488     -276
#      328      488     -440      304
# 
# ***************************************************************************
# **  Failed waiting Valid signal, Simulation STOP at cycle 1001          **
# **  Error!!! The simulation can't be terminated under normal operation!  **
# ***************************************************************************
# ** Note: $stop    : C:/Users/p8101/Desktop/school/Univ/senior(II)/VLSIDSP/2024/HW/HW4/Verilog/qr_cordic_tb.v(269)
#    Time: 50225 ns  Iteration: 1  Instance: /qr_cordic_tb
# Break in Module qr_cordic_tb at C:/Users/p8101/Desktop/school/Univ/senior(II)/VLSIDSP/2024/HW/HW4/Verilog/qr_cordic_tb.v line 269
# Compile of qr_cordic_tb.v was successful.
restart
# ** Note: (vsim-12125) Error and warning message counts have been reset to '0' because of 'restart'.
# Loading work.qr_cordic_tb
# Loading work.ROM
# Loading work.RAM
run -all
# GetModuleFileName: 找不到指定的模組。
# 
# 
# -------------------------------------------------------
# 
# START!!! Simulation Start .....
# 
# -------------------------------------------------------
# 
# Input A matrix: 
#     -492     -272     -384     -316
#      340     -488     -208      420
#      408      448     -380      288
#      348      456      152      504
#      136      272     -284      508
#      300     -356      384     -460
#     -376      464      488     -276
#      328      488     -440      304
# 
# ***************************************************************************
# **  Failed waiting Valid signal, Simulation STOP at cycle 1001           **
# **  The simulation can't be terminated under normal operation!           **
# ***************************************************************************
# ** Note: $stop    : C:/Users/p8101/Desktop/school/Univ/senior(II)/VLSIDSP/2024/HW/HW4/Verilog/qr_cordic_tb.v(269)
#    Time: 50225 ns  Iteration: 1  Instance: /qr_cordic_tb
# Break in Module qr_cordic_tb at C:/Users/p8101/Desktop/school/Univ/senior(II)/VLSIDSP/2024/HW/HW4/Verilog/qr_cordic_tb.v line 269
# Compile of cordic.v was successful.
restart
# ** Note: (vsim-12125) Error and warning message counts have been reset to '0' because of 'restart'.
# Loading work.qr_cordic
run -all
# GetModuleFileName: 找不到指定的模組。
# 
# 
# -------------------------------------------------------
# 
# START!!! Simulation Start .....
# 
# -------------------------------------------------------
# 
# Input A matrix: 
#     -492     -272     -384     -316
#      340     -488     -208      420
#      408      448     -380      288
#      348      456      152      504
#      136      272     -284      508
#      300     -356      384     -460
#     -376      464      488     -276
#      328      488     -440      304
# 
# Output R matrix golden pattern: 
#     1008      222     -242      721
#        0     1160      -36      345
#        0        0      988     -412
#        0        0        0      663
#        0        0        0        0
#        0        0        0        0
#        0        0        0        0
#        0        0        0        0
# R matrix calculated result: 
#     1008      222     -242      721
#        0     1160      -36      345
#        0        0      988     -412
#        0        0        0      663
#        0        0        0        0
#        0        0        0        0
#        0        0        0        0
#        0        0        0        0
# 
# Output Q matrix golden pattern: 
#     -499      342      416      354     -141     -307     -386      344
#     -144     -502      315      334     -242      318      418      430
#      527      -21     -284      254       86      265     -701       27
#      199      486      274      369      100      354        7      761
#     -677      -19      233      639      258      468     -350      -98
#        0      662     -177     -268     -373     -266      -49       45
#        0        0      731      -48     -412     -356     -323      263
#        0        0        0      348      767     -499       68      305
# Q matrix calculated result: 
#        0        0        0        0        0        0        0        0
#        0        0        0        0        0        0        0        0
#        0        0        0        0        0        0        0        0
#        0        0        0        0        0        0        0        0
#        0        0        0        0        0        0        0        0
#        0        0        0        0        0        0        0        0
#        0        0        0        0        0        0        0        0
#        0        0        0        0        0        0        0        0
# 
#  
# -------------------------------------------------------
# 
# --------------------- S U M M A R Y -------------------
# 
# *****************************************************************************
# ** PASS!!!  All data are correct in R matrix!                              **
# ** FAIL!!!  There are    58 error in Q matrix!                             **
# *****************************************************************************
# ** Note: $stop    : C:/Users/p8101/Desktop/school/Univ/senior(II)/VLSIDSP/2024/HW/HW4/Verilog/qr_cordic_tb.v(246)
#    Time: 3475 ns  Iteration: 0  Instance: /qr_cordic_tb
# Break in Module qr_cordic_tb at C:/Users/p8101/Desktop/school/Univ/senior(II)/VLSIDSP/2024/HW/HW4/Verilog/qr_cordic_tb.v line 246
# End time: 01:58:13 on May 22,2024, Elapsed time: 0:03:58
# Errors: 0, Warnings: 1
